[  
  {  
    "type": 0
  },
  {  
    "col": "ABV",
    "bins": 0,
    "imgSrc": "http://localhost:8000/hist?col=ABV&bins=0",
    "type": 1
  },
  {  
    "color": "#d19a66",
    "type": 2,
    "y": "IBU",
    "x": "Color",
    "marker": "s",
    "line": "none",
    "imgSrc": "http://localhost:8000/plot?x=Color&y=IBU&color=%23d19a66&linestyle=none&marker=s"
  },
  {  
    "yMin": 2,
    "y": "ABV",
    "selected": [  
      "American IPA",
      "Imperial IPA",
      "English IPA"
    ],
    "x": "Style",
    "yMax": 12,
    "type": 3,
    "imgSrc": "http://localhost:8000/boxplot?x=Style&y=ABV&categories=%5B%22American%20IPA%22%2C%22Imperial%20IPA%22%2C%22English%20IPA%22%5D&ymin=2&ymax=12"
  }
]